<!DOCTYPE svg PUBLIC "-//W3C//DTD SVG 20010904//EN" "http://www.w3.org/TR/2001/REC-SVG-20010904/DTD/svg10.dtd">
<svg version="1.0" xmlns="http://www.w3.org/2000/svg" width="222px" height="261px" viewBox="0 0 2220 2610" preserveAspectRatio="xMidYMid meet">
<g id="layer101" fill="#fc6a70" stroke="none">
 <path d="M1051 2589 c-14 -5 -44 -26 -68 -45 l-43 -35 -42 35 c-45 39 -89 52 -145 43 -44 -7 -97 -56 -110 -100 -8 -28 -13 -32 -41 -29 -18 2 -48 -2 -67 -8 -38 -13 -92 -68 -101 -104 -5 -22 -10 -24 -73 -22 -60 1 -72 -2 -104 -27 -53 -41 -70 -78 -65 -148 3 -47 11 -66 36 -98 l31 -39 -28 -12 c-97 -40 -127 -167 -61 -259 l29 -40 -94 -111 c-52 -61 -95 -118 -95 -128 0 -9 77 -94 172 -189 l172 -172 -22 -83 c-74 -284 2 -569 205 -773 102 -102 201 -160 340 -200 448 -130 906 149 999 608 22 105 15 273 -15 367 -11 36 -21 72 -21 80 0 8 83 98 185 200 102 102 185 192 185 200 0 8 -64 83 -142 165 -77 83 -152 162 -165 176 l-23 25 39 42 c101 106 43 267 -102 282 -49 5 -52 7 -58 39 -16 77 -75 124 -163 129 -63 4 -64 5 -70 37 -17 88 -150 145 -235 100 -28 -14 -29 -13 -52 22 -13 20 -36 45 -50 56 -31 23 -103 31 -138 16z"/>
 </g>
<g id="layer102" fill="#fffefe" stroke="none">
 <path d="M1044 2489 c-22 -17 -41 -32 -42 -34 -2 -2 7 -18 20 -35 18 -24 23 -44 22 -86 0 -60 -19 -94 -71 -130 l-30 -20 20 -28 c12 -17 22 -50 25 -82 4 -44 0 -61 -22 -98 -27 -45 -90 -86 -134 -86 -16 0 -22 -6 -22 -22 0 -12 -9 -41 -21 -65 -29 -60 -91 -96 -158 -91 -47 3 -50 1 -55 -23 -11 -56 -81 -115 -141 -120 -61 -5 -85 2 -129 36 -26 19 -48 35 -49 35 -7 0 -147 -169 -147 -177 0 -4 99 -107 219 -227 l219 -219 87 53 86 53 -114 116 c-63 64 -120 126 -126 138 -55 109 118 230 256 178 36 -13 78 -47 164 -132 l116 -114 104 73 c207 146 742 573 758 606 17 36 13 68 -13 98 -18 22 -32 28 -59 27 -40 -1 -38 0 -197 -130 -112 -93 -145 -108 -170 -78 -20 25 -2 50 91 125 144 117 149 122 149 168 0 32 -6 45 -26 61 -51 40 -82 30 -195 -64 -57 -47 -108 -85 -115 -85 -29 0 -44 14 -44 40 0 22 14 39 71 86 95 78 107 115 56 172 -37 40 -85 31 -162 -33 -69 -56 -91 -65 -113 -43 -17 17 -15 42 8 71 28 35 25 71 -6 96 -37 29 -65 26 -110 -10z"/>
 <path d="M737 2492 c-33 -36 -22 -76 40 -143 32 -34 71 -68 87 -74 64 -27 118 27 91 91 -6 16 -40 55 -74 87 -68 63 -112 75 -144 39z"/>
 <path d="M535 2355 c-18 -17 -25 -35 -25 -62 0 -36 9 -47 138 -176 118 -118 142 -137 169 -137 45 0 62 9 79 42 27 52 12 76 -135 221 -119 119 -142 137 -170 137 -21 0 -41 -9 -56 -25z"/>
 <path d="M315 2238 c-32 -17 -45 -39 -45 -77 0 -31 15 -49 162 -197 171 -173 193 -187 246 -160 34 18 42 33 42 83 0 32 -13 49 -132 170 -185 188 -219 211 -273 181z"/>
 <path d="M249 1917 c-59 -45 -44 -99 55 -196 63 -61 79 -71 109 -71 27 0 41 7 61 31 46 54 31 94 -69 187 -56 53 -71 62 -103 62 -20 0 -44 -6 -53 -13z"/>
 <path d="M1685 1709 c-66 -55 -140 -114 -165 -131 -25 -18 -88 -66 -140 -108 -191 -152 -362 -266 -383 -253 -8 4 -62 58 -120 119 -125 131 -175 160 -244 142 -54 -13 -87 -43 -74 -66 18 -32 322 -327 344 -333 12 -3 151 0 308 8 l287 14 75 -35 74 -34 233 233 233 234 -33 38 c-76 87 -258 273 -266 272 -5 0 -63 -45 -129 -100z"/>
 </g>

</svg>